<?xml version="1.0" encoding="utf-8"?>
<!-- Generator: Adobe Illustrator 16.0.0, SVG Export Plug-In . SVG Version: 6.00 Build 0)  -->
<!DOCTYPE svg PUBLIC "-//W3C//DTD SVG 1.1//EN" "http://www.w3.org/Graphics/SVG/1.1/DTD/svg11.dtd">
<svg version="1.1" id="Layer_1" xmlns="http://www.w3.org/2000/svg" xmlns:xlink="http://www.w3.org/1999/xlink" x="0px" y="0px"
	 width="42.309px" height="42.308px" viewBox="6.935 8.847 42.309 42.308" enable-background="new 6.935 8.847 42.309 42.308"
	 xml:space="preserve">
<g transform="translate(-3988 1540)">
	<g transform="matrix(1, 0, 0, 1, 3988, -1540)">
		<circle fill="#ED1847" cx="28.09" cy="30" r="21.154"/>
	</g>
	<path fill="#FFFFFF" d="M4011.595-1511.442c1.303,2.557,3.382,4.635,5.938,5.938l1.982-1.982c0.238-0.241,0.594-0.328,0.916-0.225
		c1.039,0.342,2.125,0.515,3.217,0.513c0.498,0,0.902,0.402,0.902,0.9l0,0v3.154c0,0.497-0.402,0.9-0.9,0.9
		c-8.459,0-15.317-6.857-15.317-15.316l0,0c0-0.498,0.402-0.901,0.9-0.901h3.154c0.497,0,0.9,0.403,0.9,0.901
		c-0.002,1.093,0.172,2.179,0.514,3.217c0.104,0.323,0.016,0.678-0.225,0.917L4011.595-1511.442z"/>
</g>
</svg>
