<?xml version="1.0" encoding="utf-8"?>
<!-- Generator: Adobe Illustrator 16.0.0, SVG Export Plug-In . SVG Version: 6.00 Build 0)  -->
<!DOCTYPE svg PUBLIC "-//W3C//DTD SVG 1.1//EN" "http://www.w3.org/Graphics/SVG/1.1/DTD/svg11.dtd">
<svg version="1.1"
	 id="svg2" xmlns:dc="http://purl.org/dc/elements/1.1/" xmlns:rdf="http://www.w3.org/1999/02/22-rdf-syntax-ns#" xmlns:sodipodi="http://sodipodi.sourceforge.net/DTD/sodipodi-0.dtd" xmlns:inkscape="http://www.inkscape.org/namespaces/inkscape" xmlns:cc="http://creativecommons.org/ns#" xmlns:svg="http://www.w3.org/2000/svg"
	 xmlns="http://www.w3.org/2000/svg" xmlns:xlink="http://www.w3.org/1999/xlink" x="0px" y="0px" width="30.25px" height="30.5px"
	 viewBox="-2.396 -2.562 30.25 30.5" enable-background="new -2.396 -2.562 30.25 30.5" xml:space="preserve">
<g id="layer1" transform="translate(0,-1036.3622)">
	<path id="path2985" fill="none" stroke="#FFFFFF" stroke-width="2" d="M-1.688,1063.383l28.833-28.833"/>
	<path id="path2985-1" fill="none" stroke="#FFFFFF" stroke-width="2" d="M-1.688,1034.55l28.833,28.833"/>
</g>
</svg>
