<?xml version="1.0" encoding="utf-8"?>
<!-- Generator: Adobe Illustrator 16.0.0, SVG Export Plug-In . SVG Version: 6.00 Build 0)  -->
<!DOCTYPE svg PUBLIC "-//W3C//DTD SVG 1.1//EN" "http://www.w3.org/Graphics/SVG/1.1/DTD/svg11.dtd">
<svg version="1.1" id="Layer_1" xmlns="http://www.w3.org/2000/svg" xmlns:xlink="http://www.w3.org/1999/xlink" x="0px" y="0px"
	 width="30.206px" height="40px" viewBox="-3.775 -10 30.206 40" enable-background="new -3.775 -10 30.206 40"
	 xml:space="preserve">
<path fill="#ED1847" d="M11.326,9.001c-2.869,0.103-5.279-2.132-5.394-5c0.114-2.868,2.524-5.107,5.394-5
	c2.863-0.107,5.278,2.132,5.393,5C16.604,6.869,14.189,9.104,11.326,9.001 M11.326-10C2.985-10-3.775-3.732-3.775,4.001
	C-3.775,14.498,11.326,30,11.326,30S26.431,14.498,26.431,4.001C26.431-3.732,19.672-10,11.326-10z"/>
</svg>
