<?xml version="1.0" encoding="iso-8859-1"?>
<!-- Generator: Adobe Illustrator 19.0.0, SVG Export Plug-In . SVG Version: 6.00 Build 0)  -->
<svg xmlns="http://www.w3.org/2000/svg" xmlns:xlink="http://www.w3.org/1999/xlink" version="1.1" id="Layer_1" x="0px" y="0px" viewBox="0 0 496 496" style="enable-background:new 0 0 496 496;" xml:space="preserve" width="512px" height="512px">
<g>
	<g>
		<g>
			<path d="M208,32c-97.048,0-176,78.952-176,176s78.952,176,176,176s176-78.952,176-176S305.048,32,208,32z M208,368     c-1.8,0-3.544-0.208-5.328-0.272C214.64,366.384,224,356.32,224,344c0-13.232-10.768-24-24-24s-24,10.768-24,24     c0,11.352,7.944,20.832,18.544,23.32C112.608,360.448,48,291.688,48,208c0-88.224,71.776-160,160-160s160,71.776,160,160     S296.224,368,208,368z M200,352c-4.416,0-8-3.584-8-8c0-4.416,3.584-8,8-8s8,3.584,8,8C208,348.416,204.416,352,200,352z" fill="#FFFFFF"/>
			<path d="M483.72,424.408L407.312,348l14.344-14.344l-11.312-11.312L396,336.688l-14.36-14.36     C403.328,289.496,416,250.208,416,208C416,93.304,322.696,0,208,0S0,93.304,0,208s93.304,208,208,208     c42.208,0,81.496-12.672,114.328-34.36l14.36,14.36l-14.344,14.344l11.312,11.312L348,407.312l76.408,76.408     c7.92,7.92,18.456,12.28,29.656,12.28c23.12,0,41.936-18.816,41.936-41.936C496,442.856,491.64,432.328,483.72,424.408z M208,400     c-105.864,0-192-86.136-192-192S102.136,16,208,16s192,86.136,192,192S313.864,400,208,400z M335.488,372.176     c13.696-10.664,26.024-22.992,36.688-36.688L384.688,348L348,384.688L335.488,372.176z M454.064,480     c-6.928,0-13.448-2.696-18.344-7.592L359.312,396L396,359.312l76.408,76.408c4.896,4.896,7.592,11.416,7.592,18.344     C480,468.368,468.368,480,454.064,480z" fill="#FFFFFF"/>
			<path d="M280,208c-30.872,0-56,28.712-56,64c0,35.288,25.128,64,56,64s56-28.712,56-64C336,236.712,310.872,208,280,208z      M280,320c-22.056,0-40-21.528-40-48s17.944-48,40-48c22.056,0,40,21.528,40,48S302.056,320,280,320z" fill="#FFFFFF"/>
			<path d="M296,120c0-30.872-28.712-56-64-56c-24.528,0-45.848,12.152-56.584,29.92C168.112,90.072,160.176,88,152,88     c-30.872,0-56,28.712-56,64c0,15.664,4.992,30.408,13.848,41.968C91.944,205.328,80,225.272,80,248c0,35.288,28.712,64,64,64     s64-28.712,64-64c0-18.44-7.88-35.032-20.4-46.72c8.384-7.944,14.56-18.52,17.776-30.424c8.12,3.272,17.12,5.144,26.624,5.144     C267.288,176,296,150.872,296,120z M192,248c0,26.472-21.528,48-48,48s-48-21.528-48-48s21.528-48,48-48S192,221.528,192,248z      M174.408,191.704C165.36,186.792,155,184,144,184c-6.712,0-13.184,1.056-19.272,2.976C116.6,177.896,112,165.416,112,152     c0-26.472,17.944-48,40-48c6.032,0,11.912,1.672,17.288,4.792C168.448,112.416,168,116.16,168,120     c0,17.184,8.912,32.568,22.88,42.848C188.608,174.592,182.728,184.912,174.408,191.704z M184,120c0-22.056,21.528-40,48-40     s48,17.944,48,40c0,22.056-21.528,40-48,40S184,142.056,184,120z" fill="#FFFFFF"/>
			<path d="M112,248c0,17.648,14.352,32,32,32v-16c-8.824,0-16-7.176-16-16c0-8.824,7.176-16,16-16v-16     C126.352,216,112,230.352,112,248z" fill="#FFFFFF"/>
			<path d="M280,240v16c3.264,0,8,6.232,8,16s-4.736,16-8,16v16c13.464,0,24-14.056,24-32C304,254.056,293.464,240,280,240z" fill="#FFFFFF"/>
			<path d="M128,152c0,17.944,10.536,32,24,32v-16c-3.264,0-8-6.232-8-16s4.736-16,8-16v-16C138.536,120,128,134.056,128,152z" fill="#FFFFFF"/>
			<path d="M264,120h-16c0,3.264-6.232,8-16,8s-16-4.736-16-8h-16c0,13.464,14.056,24,32,24C249.944,144,264,133.464,264,120z" fill="#FFFFFF"/>
			<path d="M320,152c-13.232,0-24,10.768-24,24s10.768,24,24,24s24-10.768,24-24S333.232,152,320,152z M320,184     c-4.416,0-8-3.584-8-8s3.584-8,8-8c4.416,0,8,3.584,8,8S324.416,184,320,184z" fill="#FFFFFF"/>
		</g>
	</g>
</g>
<g>
</g>
<g>
</g>
<g>
</g>
<g>
</g>
<g>
</g>
<g>
</g>
<g>
</g>
<g>
</g>
<g>
</g>
<g>
</g>
<g>
</g>
<g>
</g>
<g>
</g>
<g>
</g>
<g>
</g>
</svg>
